6.3 Market Basket Analysis
…
Data preprocessing and exploring

retail <- read_excel('Datasets/Online retail.xlsx')
retail <- retail[complete.cases(retail), ]
dim(retail)

 [1] 406829      8

retail

 # A tibble: 406,829 x 8
    InvoiceNo StockCode Description Quantity InvoiceDate         UnitPrice
    <chr>     <chr>     <chr>          <dbl> <dttm>                  <dbl>
  1 536365    85123A    WHITE HANG~        6 2010-12-01 08:26:00      2.55
  2 536365    71053     WHITE META~        6 2010-12-01 08:26:00      3.39
  3 536365    84406B    CREAM CUPI~        8 2010-12-01 08:26:00      2.75
  4 536365    84029G    KNITTED UN~        6 2010-12-01 08:26:00      3.39
  5 536365    84029E    RED WOOLLY~        6 2010-12-01 08:26:00      3.39
  6 536365    22752     SET 7 BABU~        2 2010-12-01 08:26:00      7.65
  7 536365    21730     GLASS STAR~        6 2010-12-01 08:26:00      4.25
  8 536366    22633     HAND WARME~        6 2010-12-01 08:28:00      1.85
  9 536366    22632     HAND WARME~        6 2010-12-01 08:28:00      1.85
 10 536367    84879     ASSORTED C~       32 2010-12-01 08:34:00      1.69
 # ... with 406,819 more rows, and 2 more variables: CustomerID <dbl>,
 #   Country <chr>
…
